Year,total,avg,net,loss
2015-Q4,1864006025,500000000,700000000,600000000
2016-Q1,2230612678,500000000,700000000,600000000
2016-Q2,2136757055,500000000,700000000,600000000
2016-Q3,2339610458,500000000,700000000,600000000
2016-Q4,2066061951,500000000,700000000,600000000
2017-Q1,2318349214,500000000,700000000,600000000
2017-Q2,2278574952,500000000,700000000,600000000
2017-Q3,2427641358,500000000,700000000,600000000
2017-Q4,2470403257,500000000,700000000,600000000
2018-Q1,2711684169,500000000,700000000,600000000
2018-Q2,2737158760,500000000,700000000,600000000
2018-Q3,2357008727,500000000,700000000,600000000
2018-Q4,2627761194,500000000,700000000,600000000